{
    "type": "result || error || message",
    "body": [ 
        "error/message_string ||",
        {
            "columns": ["col1", "col2", "..."],
            "rows": [["row1"], ["row2"], "..."]
        }
    ]
}
